exercise-10
…
# Generate null distribution
permuted_F <- permutation_data |>
  specify(log_mass ~ Trophic.Level) |>
  hypothesize(null = "independence") |>
  generate(reps = 1000, type = "permute") |>
  calculate(stat = "F")

permuted_F

Response: log_mass (numeric)
Explanatory: Trophic.Level (factor)
Null Hypothesis: independence
# A tibble: 1,000 × 2
   replicate  stat
       <int> <dbl>
 1         1 0.696
 2         2 0.156
 3         3 0.325
 4         4 0.307
 5         5 1.10 
 6         6 0.986
 7         7 2.06 
 8         8 1.18 
 9         9 0.155
10        10 2.71 
# ℹ 990 more rows
…
